<?xml version="1.0" encoding="utf-8"?>
<!-- Generator: Adobe Illustrator 22.0.0, SVG Export Plug-In . SVG Version: 6.00 Build 0)  -->
<svg version="1.1" id="Слой_1" xmlns="http://www.w3.org/2000/svg" xmlns:xlink="http://www.w3.org/1999/xlink" x="0px" y="0px"
	 viewBox="0 0 1394.5 849" style="enable-background:new 0 0 1394.5 849;" xml:space="preserve">
<style type="text/css">
	.st0{fill:#B3B3B3;stroke:#000000;stroke-width:3;stroke-miterlimit:10;}
	.st1{fill:#E6E6E6;stroke:#000000;stroke-width:3;stroke-miterlimit:10;}
	.st2{fill:#FFFFFF;stroke:#000000;stroke-miterlimit:10;}
	.st3{fill:#B3B3B3;}
	.st4{fill:#CCCCCC;}
	.st5{fill:#FF0000;}
	.st6{fill:#33BDFF;}
	.st7{fill:#FF0000;stroke:#000000;stroke-width:5;stroke-miterlimit:10;}
	.st8{fill:#FF0000;stroke:#000000;stroke-width:3;stroke-miterlimit:10;}
	.st9{display:none;fill:none;stroke:#000000;stroke-width:3;stroke-miterlimit:10;}
	.st10{fill:#FFFFFF;stroke:#000000;stroke-width:3;stroke-miterlimit:10;}
	.st11{stroke:#000000;stroke-width:3;stroke-miterlimit:10;}
	.st12{fill:none;stroke:#000000;stroke-width:5;stroke-miterlimit:10;}
	.st13{fill:#1E201D;}
	.st14{fill:#D4145A;}
	.st15{fill:#FFF800;}
	.st16{fill:#FFFFFF;stroke:#000000;stroke-width:5;stroke-miterlimit:10;}
	.st17{fill:#F2F2F2;stroke:#000000;stroke-width:5;stroke-miterlimit:10;}
</style>
<g id="Слой_1_1_">
	<path d="M1106.2,809.6h-698V382.2c0-34.3,27.8-62.1,62.1-62.1h565.9c38.7,0,70,31.3,70,70V809.6z"/>
	<path class="st0" d="M355.7,806.2h803l0,0c0,19-15.4,34.4-34.4,34.4H390.2C371.1,840.6,355.7,825.2,355.7,806.2L355.7,806.2z"/>
	<path class="st1" d="M629.5,807.2h255.4l0,0c0,11.1-9,20-20,20H649.5C638.5,827.2,629.5,818.2,629.5,807.2L629.5,807.2z"/>
	<rect x="446.4" y="364.2" class="st2" width="624" height="409.4"/>
	<rect x="622.1" y="442.7" class="st3" width="325" height="23.4"/>
	<rect x="622.2" y="474.1" class="st4" width="202.9" height="8.2"/>
	<rect x="3.2" y="39.1" width="202.9" height="8.2"/>
	<rect x="47.1" y="65.1" width="184" height="8.2"/>
	<rect x="622.2" y="487.1" class="st4" width="142.9" height="8.2"/>
	<rect x="622.2" y="499.1" class="st4" width="142.9" height="6.1"/>
	<rect x="622.1" y="546.7" class="st3" width="325" height="23.4"/>
	<rect x="622.2" y="578.1" class="st4" width="202.9" height="8.2"/>
	<rect x="622.2" y="591.1" class="st4" width="142.9" height="8.2"/>
	<rect x="622.2" y="603.1" class="st4" width="142.9" height="6.1"/>
	<rect x="622.1" y="654.7" class="st3" width="325" height="23.4"/>
	<rect x="622.2" y="686.1" class="st4" width="202.9" height="8.2"/>
	<rect x="622.2" y="699.1" class="st4" width="142.9" height="8.2"/>
	<rect x="622.2" y="711.1" class="st4" width="142.9" height="6.1"/>
	<path class="st5" d="M559.1,675c-6-6-12-12-18-17.9c-6.3,6.1-11.8,6.9-14,7c-1,0.1-1.8,0-2,0c-6.3-0.4-10.8-4.5-13-7
		c-6,6.3-12,12.6-17.9,18.9c-1.8,1.8-1.8,4.6,0,6.4l5.4,5.4c1.8,1.8,4.6,1.8,6.4,0l2.7-2.7v30c0,2.5,2,4.5,4.5,4.5h27
		c2.5,0,4.5-2,4.5-4.5V684l2.7,2.7c1.8,1.8,4.6,1.8,6.4,0l5.4-5.4C560.8,679.7,560.8,676.8,559.1,675z"/>
	<path class="st6" d="M558.6,563.5c-6-6-12-12-18-17.9c-6.3,6.1-11.8,6.9-14,7c-1,0.1-1.8,0-2,0c-6.3-0.4-10.8-4.5-13-7
		c-6,6.3-12,12.6-17.9,18.9c-1.8,1.8-1.8,4.6,0,6.4l5.4,5.4c1.8,1.8,4.6,1.8,6.4,0l2.7-2.7v30c0,2.5,2,4.5,4.5,4.5h27
		c2.5,0,4.5-2,4.5-4.5v-31.1l2.7,2.7c1.8,1.8,4.6,1.8,6.4,0l5.4-5.4C560.3,568.2,560.3,565.3,558.6,563.5z"/>
	<path class="st7" d="M1352.3,255.1c-75.8,0-151.5,0-227.3,0c-9.2-52.4-18.4-104.8-27.6-157.2h282.4
		C1370.7,150.3,1361.5,202.7,1352.3,255.1z"/>
	<circle class="st8" cx="340" cy="122.2" r="103"/>
	<circle class="st9" cx="890.1" cy="423.1" r="22.5"/>
	<circle class="st10" cx="340" cy="122.2" r="88.8"/>
	<rect x="333.6" y="33.6" class="st11" width="12" height="23"/>
	<rect x="251.6" y="114.6" class="st11" width="23" height="12"/>
	<rect x="404.6" y="116.6" class="st11" width="23" height="12"/>
	<rect x="331.6" y="185.6" class="st11" width="12" height="23"/>
	<rect x="379.1" y="59.1" transform="matrix(0.6711 -0.7413 0.7413 0.6711 80.2088 310.963)" class="st11" width="23" height="12"/>
	
		<rect x="267.1" y="160.1" transform="matrix(0.6711 -0.7413 0.7413 0.6711 -31.4965 261.1543)" class="st11" width="23" height="12"/>
	
		<rect x="390.6" y="161.6" transform="matrix(0.7413 -0.6711 0.6711 0.7413 -13.6031 310.9366)" class="st11" width="12" height="23"/>
	
		<rect x="278.6" y="57.6" transform="matrix(0.7413 -0.6711 0.6711 0.7413 27.2261 208.8739)" class="st11" width="12" height="23"/>
	<g>
		<path d="M385.6,138.7l15.1-15c0.3-0.3,0.4-0.6,0.4-1s-0.1-0.7-0.4-1L386,106.5c-0.4-0.4-0.9-0.5-1.4-0.2c-0.5,0.2-0.7,0.6-0.8,1.2
			l-0.1,9.6l-48.4-0.8c-0.4,0-0.7,0.1-0.9,0.4c-0.2,0.3-0.4,0.6-0.4,1l-0.1,8.2c0,0.4,0.1,0.7,0.3,1c0.2,0.3,0.5,0.4,0.9,0.4
			l48.4,0.8l-0.1,9.6c0,0.6,0.2,1,0.7,1.3C384.7,139.1,385.2,139,385.6,138.7z"/>
	</g>
	<g>
		<path d="M355.7,74.6l-15.1-15.1c-0.3-0.3-0.6-0.4-1-0.4s-0.7,0.1-1,0.4l-15.1,14.9c-0.4,0.4-0.5,0.9-0.2,1.4
			c0.2,0.5,0.6,0.7,1.2,0.8l9.6,0.1l-0.4,48.7c0,0.4,0.1,0.7,0.4,0.9c0.3,0.2,0.6,0.4,1,0.4l8.2,0.1c0.4,0,0.7-0.1,1-0.3
			c0.3-0.2,0.4-0.5,0.4-0.9l0.4-48.7l9.6,0.1c0.6,0,1-0.2,1.2-0.7C356.1,75.5,356.1,75,355.7,74.6z"/>
	</g>
	<ellipse class="st12" cx="551.2" cy="277.6" rx="19.7" ry="20"/>
	<ellipse class="st12" cx="334.9" cy="420.1" rx="34" ry="34.5"/>
	<ellipse class="st12" cx="271.2" cy="516.6" rx="19.7" ry="20"/>
	<ellipse class="st12" cx="1017.2" cy="184.6" rx="19.7" ry="20"/>
	<path class="st12" d="M822.6,227.5l-21.9-21.9c-4.7-4.7-4.7-12.3,0-17l21.9-21.9c4.7-4.7,12.3-4.7,17,0l21.9,21.9
		c4.7,4.7,4.7,12.3,0,17l-21.9,21.9C834.9,232.2,827.3,232.2,822.6,227.5z"/>
	<path class="st12" d="M322.6,629.5l-21.9-21.9c-4.7-4.7-4.7-12.3,0-17l21.9-21.9c4.7-4.7,12.3-4.7,17,0l21.9,21.9
		c4.7,4.7,4.7,12.3,0,17l-21.9,21.9C334.9,634.2,327.3,634.2,322.6,629.5z"/>
	<path class="st12" d="M684.6,272.6c1.4-1.9,23.9-31.8,45-27c7.7,1.8,17.4,8.9,19,10c12,8.7,12.9,14.8,19,15c6.6,0.2,8-6.7,23-16
		c7.7-4.7,11.5-7.1,15-7c10.6,0.3,21,13,34,23c1.1,0.8,3.5,2.7,7,3c0.6,0.1,3,0.2,6-1c10.8-4.4,27.8-26,42-25
		c8.2,0.6,15.9,8.7,16.9,9.8c2.6,2.8,4.2,5.6,9.1,10.1c3.4,3.1,5.7,5.1,9,6.1c5.3,1.6,10.2-0.2,12.4-1.1
		c10.6-4.1,9.6-11.7,22.1-19.1c4.6-2.7,9.4-4.4,14.5-3.8c1.7,0.2,2.9,0.6,4,1c7,2.4,8.3,6,17.6,12.8c2,1.4,3.5,2.5,5.6,4.4
		c2.4,2.1,3.2,3.2,6.8,5.8c6.2,4.4,11.3,5.8,15.7,5.4c6.3-0.6,14.7-2.9,22.5-8.6c4.8-3.5,7.9-7.3,9.8-9.9"/>
	<path class="st13" d="M1259.4,355.5c0.9,1.1,0.9,2.9,0,4.1c-0.9,1.1-2.4,1.1-3.2,0l-16.6-20.7v68.3c0,1.6-1,2.9-2.3,2.9
		s-2.3-1.3-2.3-2.9v-68.3l-16.5,20.7c-0.9,1.1-2.4,1.1-3.3,0s-0.9-2.9,0-4.1l20.5-25.6c0.9-1.1,2.4-1.1,3.2,0L1259.4,355.5z"/>
	<path class="st13" d="M1239.6,397.9v68.3c0,1.6-1,2.9-2.3,2.9s-2.3-1.3-2.3-2.9v-68.3l0.7-9c0.9-1.1,2.4-1.1,3.2,0L1239.6,397.9z"
		/>
	<path class="st13" d="M1239.6,465.9v68.3c0,1.6-1,2.9-2.3,2.9s-2.3-1.3-2.3-2.9v-68.3l0.7-9c0.9-1.1,2.4-1.1,3.2,0L1239.6,465.9z"
		/>
	<path class="st13" d="M1239.6,520.9v68.3c0.1,1.7-1.3,3-2.5,2.9c-1.1-0.1-2.2-1.3-2.1-2.9v-68.3l0.7-9c0.9-1.1,2.4-1.1,3.2,0
		L1239.6,520.9z"/>
	<path class="st13" d="M1237,592.1l-68.3,0.2c-1.6,0-2.9-1.3-2.9-2.9c0-1.6,1.3-2.9,2.8-2.9l68.3-0.2L1237,592.1z"/>
</g>
<g id="Слой_3">
	<path class="st14" d="M549.2,516.6h-44c0.3-12.9,0.3-26.2,0-40c-0.2-11.7-0.7-23-1.3-34c3,0,6,0,9,0c0.7,0.8,6.6,7.5,16,7
		c8.3-0.4,13.2-6,14-7c2.7,0,5.3,0,8,0c-0.4,6.3-0.7,12.6-1,19c-0.2,5-0.5,10-0.7,15C549.2,489.9,549.2,503.3,549.2,516.6z"/>
</g>
<g id="Слой_4">
</g>
<g id="Слой_5">
</g>
<g id="Слой_2_1_">
	<path class="st8" d="M469.6,410.6H464c-2.5,0-15.2-0.3-25.5-10.5c-9.4-9.3-10.4-20.6-10.5-23.5c5.9-7.2,11.9-15.2,18-24
		c6.9-10.1,12.9-19.8,18-29h5.7c19.9,0,36,16.1,36,36v15C505.6,394.5,489.5,410.6,469.6,410.6z"/>
	<path class="st10" d="M535.8,411.1h-5.7c-19.9,0-36-16.1-36-36v-15c0-19.9,16.1-36,36-36h5.7c19.9,0,36,16.1,36,36v15
		C571.8,395,555.7,411.1,535.8,411.1z"/>
	<path class="st8" d="M607.8,412.1h-5.7c-19.9,0-36-16.1-36-36v-15c0-19.9,16.1-36,36-36h5.7c19.9,0,36,16.1,36,36v15
		C643.8,396,627.7,412.1,607.8,412.1z"/>
	<path class="st10" d="M683.8,412.1h-5.7c-19.9,0-36-16.1-36-36v-15c0-19.9,16.1-36,36-36h5.7c19.9,0,36,16.1,36,36v15
		C719.8,396,703.7,412.1,683.8,412.1z"/>
	<path class="st8" d="M759.8,411.1h-5.7c-19.9,0-36-16.1-36-36v-15c0-19.9,16.1-36,36-36h5.7c19.9,0,36,16.1,36,36v15
		C795.8,395,779.7,411.1,759.8,411.1z"/>
	<path class="st10" d="M836.8,413.1h-5.7c-19.9,0-36-16.1-36-36v-15c0-19.9,16.1-36,36-36h5.7c19.9,0,36,16.1,36,36v15
		C872.8,397,856.7,413.1,836.8,413.1z"/>
	<path class="st8" d="M1045.1,413.1L1045.1,413.1c-19.9,0-36-16.1-36-36v-15c0-19.9,16.1-36,36-36l0,0c3.3,4.7,6.7,9.3,10,14
		c5.7,8,11.4,16,17,24c3,4.3,6,8.7,9,13C1081.1,397,1065,413.1,1045.1,413.1z"/>
	<path class="st8" d="M913.8,410.1h-5.7c-19.9,0-36-16.1-36-36v-15c0-19.9,16.1-36,36-36h5.7c19.9,0,36,16.1,36,36v15
		C949.8,394,933.7,410.1,913.8,410.1z"/>
	<path class="st10" d="M985.8,413.1h-5.7c-19.9,0-36-16.1-36-36v-15c0-19.9,16.1-36,36-36h5.7c19.9,0,36,16.1,36,36v15
		C1021.8,397,1005.7,413.1,985.8,413.1z"/>
	<path class="st8" d="M426.1,377.1c10.3-21,20.7-42,31-63c197,0,394,0,591,0c11.3,21,22.7,42,34,63H426.1z"/>
</g>
<g id="Слой_6">
	<circle class="st15" cx="527.4" cy="476.6" r="10.5"/>
	<circle cx="524.6" cy="473.6" r="1.5"/>
	<circle cx="530.6" cy="473.6" r="1.5"/>
	<path d="M534.7,478.1c0.2,0.4-3.1,3-7,3s-7.2-2.6-7-3c0.1-0.4,2.7,1,7,1S534.6,477.7,534.7,478.1z"/>
	<circle class="st15" cx="526.4" cy="575.6" r="10.5"/>
	<circle cx="523.6" cy="572.6" r="1.5"/>
	<circle cx="529.6" cy="572.6" r="1.5"/>
	<path d="M533.7,577.1c0.2,0.4-3.1,3-7,3s-7.2-2.6-7-3c0.1-0.4,2.7,1,7,1S533.6,576.7,533.7,577.1z"/>
	<circle class="st15" cx="526.4" cy="682.6" r="10.5"/>
	<circle cx="523.6" cy="679.6" r="1.5"/>
	<circle cx="529.6" cy="679.6" r="1.5"/>
	<path d="M533.7,684.1c0.2,0.4-3.1,3-7,3s-7.2-2.6-7-3c0.1-0.4,2.7,1,7,1S533.6,683.7,533.7,684.1z"/>
	<path class="st11" d="M1380.6,98.2h-281.7c-5.1,0-9.3-4.2-9.3-9.3l0,0c0-5.1,4.2-9.3,9.3-9.3h281.7c5.1,0,9.3,4.2,9.3,9.3l0,0
		C1389.9,94,1385.7,98.2,1380.6,98.2z"/>
</g>
<g id="Слой_7">
	<path class="st16" d="M1299.8,213.9v-73.8c0-4.3,3.5-7.8,7.8-7.8h0.8c4.3,0,7.8,3.5,7.8,7.8v73.8c0,4.3-3.5,7.8-7.8,7.8h-0.8
		C1303.3,221.7,1299.8,218.2,1299.8,213.9z"/>
	<path class="st16" d="M1171.7,84l62.2-68.3c2.9-3.2,7.9-3.4,11-0.5l0.6,0.5c3.2,2.9,3.4,7.9,0.5,11L1183.8,95
		c-2.9,3.2-7.9,3.4-11,0.5l-0.6-0.5C1169,92.2,1168.8,87.2,1171.7,84z"/>
	<path class="st16" d="M1234.3,26.7l62.2,68.3c2.9,3.2,7.9,3.4,11,0.5l0.6-0.5c3.2-2.9,3.4-7.9,0.5-11l-62.2-68.3
		c-2.9-3.2-7.9-3.4-11-0.5l-0.6,0.5C1231.6,18.6,1231.4,23.6,1234.3,26.7z"/>
	<path class="st17" d="M1161.9,213.9v-73.8c0-4.3,3.5-7.8,7.8-7.8h0.8c4.3,0,7.8,3.5,7.8,7.8v73.8c0,4.3-3.5,7.8-7.8,7.8h-0.8
		C1165.4,221.7,1161.9,218.2,1161.9,213.9z"/>
	<path class="st17" d="M1208.8,213.9v-73.8c0-4.3,3.5-7.8,7.8-7.8h0.8c4.3,0,7.8,3.5,7.8,7.8v73.8c0,4.3-3.5,7.8-7.8,7.8h-0.8
		C1212.4,221.7,1208.8,218.2,1208.8,213.9z"/>
	<path class="st17" d="M1254.3,213.9v-73.8c0-4.3,3.5-7.8,7.8-7.8h0.8c4.3,0,7.8,3.5,7.8,7.8v73.8c0,4.3-3.5,7.8-7.8,7.8h-0.8
		C1257.8,221.7,1254.3,218.2,1254.3,213.9z"/>
</g>
</svg>
